-------------------------------------------------------------------------------
Test set: jhadlak.examples.com.leap_year.DateUtilTest
-------------------------------------------------------------------------------
Tests run: 5, Failures: 0, Errors: 0, Skipped: 0, Time elapsed: 0 s - in jhadlak.examples.com.leap_year.DateUtilTest
