-------------------------------------------------------------------------------
Test set: jhadlak.examples.com.asserts.AssertionJUnitTest
-------------------------------------------------------------------------------
Tests run: 11, Failures: 0, Errors: 0, Skipped: 1, Time elapsed: 0.004 s - in jhadlak.examples.com.asserts.AssertionJUnitTest
