-------------------------------------------------------------------------------
Test set: jhadlak.examples.com.reader_writer.ReaderWriterTempFolderTest
-------------------------------------------------------------------------------
Tests run: 1, Failures: 0, Errors: 0, Skipped: 0, Time elapsed: 0.003 s - in jhadlak.examples.com.reader_writer.ReaderWriterTempFolderTest
