-------------------------------------------------------------------------------
Test set: jhadlak.examples.com.AppTest
-------------------------------------------------------------------------------
Tests run: 1, Failures: 0, Errors: 0, Skipped: 0, Time elapsed: 0.075 s - in jhadlak.examples.com.AppTest
